{
    "isDebug": false,
    "playerLives": {
        "easy": 10,
        "normal": 5,
        "hard": 1
    }, 
    "difficultyScoreMultiplier": {
        "easy": {"base": 0.005, "increase": 0.00005},
        "normal": {
            "base": 0.01,
            "increase": 0.0001
        },
        "hard": {
            "base": 0.02,
            "increase": 0.0002
        }
    }
}